Programacion Orientada a Objetos,SISPOO,60,2,Anual,ConExamen,2
Economia,CONTECO,60,1,Anual,PromocionDirecta,2
Portugues,PORTPORT,50,1,Anual,PromocionDirecta,1
Arquitectura de Computadoras,SISARC,20,2,Cuatrimestral,PromocionDirecta,2
Matematica,ADM mate,20,2,Anual,PromocionDirecta,2
