2019-10-01,Tema1,SISPOO,12345,37564432,true,36056208,true,12345678,false,40987654,false
2019-10-02,Tema 2,SISPOO,12345,37564432,true,36056208,true,12345678,false,40987654,false
2019-10-03,Tema 3,SISPOO,12345,37564432,true,36056208,true,12345678,false,40987654,false
2019-10-04,Tema 4,SISPOO,12345,37564432,true,36056208,true,12345678,false,40987654,false
2019-10-05,Tema 5,SISPOO,12345,37564432,true,36056208,true,12345678,false,40987654,false
2019-10-06,Tema 6,SISPOO,12345,37564432,true,36056208,true,12345678,false,40987654,false
2019-10-07,Tema 7,SISPOO,12345,37564432,true,36056208,true,12345678,false,40987654,false
2019-10-08,Tema 8,SISPOO,12345,37564432,true,36056208,true,12345678,false,40987654,false
2019-10-09,Tema 9,SISPOO,12345,37564432,true,36056208,true,12345678,false,40987654,false
2019-10-10,Tema 10,SISPOO,12345,37564432,true,36056208,true,12345678,false,40987654,false
2019-10-10,,SISARC,12345,36056208,true,a,false
2019-10-15,PRueba,SISPOO,12345,37564432,true,36056208,true,12345678,false,40987654,false
2019-09-15,Tema 1,SISPOO,1336,37564432,false,36056208,false,12345678,false,40987654,false
2019-09-15,TEMA 1,SISPOO,1336,37564432,false,36056208,false,12345678,false,40987654,false
2019-10-10,tema 1,SISARC,12345,36056208,true,a,true
2019-10-10,tema 1,SISARC,12345,36056208,true,a,true
2019-10-10,tema 1,SISARC,12345,36056208,true,a,true
2019-10-10,tema 1,SISARC,12345,36056208,true,a,true
2019-10-10,tema 1,SISARC,12345,36056208,true,a,true
